<svg xmlns="http://www.w3.org/2000/svg" viewBox="0 0 64 64" aria-labelledby="title"
aria-describedby="desc" role="img" xmlns:xlink="http://www.w3.org/1999/xlink">
  <title>Adjust Diagonal</title>
  <desc>A line styled icon from Orion Icon Library.</desc>
  <path data-name="layer1"
  fill="none" stroke="#003399" stroke-miterlimit="10" stroke-width="2" d="M23 8v6h-4.755L50 45.756V41h6v15H41v-6h4.76L14 18.24V23H8V8h15z"
  stroke-linejoin="round" stroke-linecap="round"></path>
</svg>