<svg xmlns="http://www.w3.org/2000/svg" viewBox="0 0 64 64" aria-labelledby="title"
aria-describedby="desc" role="img" xmlns:xlink="http://www.w3.org/1999/xlink">
  <title>Angle Right</title>
  <desc>A line styled icon from Orion Icon Library.</desc>
  <path data-name="layer1"
  fill="none" stroke="#003399" stroke-miterlimit="10" stroke-width="2" d="M40 31.998L26 18l-4 4.486 9.515 9.512L22 41.513 26 46l14-14.002z"
  stroke-linejoin="round" stroke-linecap="round"></path>
</svg>