<svg xmlns="http://www.w3.org/2000/svg" viewBox="0 0 64 64" aria-labelledby="title"
aria-describedby="desc" role="img" xmlns:xlink="http://www.w3.org/1999/xlink">
  <title>Bin</title>
  <desc>A line styled icon from Orion Icon Library.</desc>
  <path data-name="layer2"
  fill="none" stroke="#33cc33" stroke-miterlimit="10" stroke-width="2" d="M6 10h52m-36 0V5.9A3.9 3.9 0 0 1 25.9 2h12.2A3.9 3.9 0 0 1 42 5.9V10m10.5 0l-2.9 47.1a5 5 0 0 1-4.9 4.9H19.3a5 5 0 0 1-4.9-4.9L11.5 10"
  stroke-linejoin="round" stroke-linecap="round"></path>
  <path data-name="layer1" fill="none" stroke="#003399" stroke-miterlimit="10"
  stroke-width="2" d="M32 18v36M22 18l2 36m18-36l-2 36" stroke-linejoin="round"
  stroke-linecap="round"></path>
</svg>