<svg xmlns="http://www.w3.org/2000/svg" viewBox="0 0 64 64" aria-labelledby="title"
aria-describedby="desc" role="img" xmlns:xlink="http://www.w3.org/1999/xlink">
  <title>Binocular</title>
  <desc>A line styled icon from Orion Icon Library.</desc>
  <path data-name="layer2"
  d="M28 42V16.5A7.5 7.5 0 0 0 20.5 9a7.7 7.7 0 0 0-6.7 4.1l-.3.6L3 37m33 5V16.5A7.5 7.5 0 0 1 43.5 9a7.7 7.7 0 0 1 6.7 4.1l.3.6L61 37M28 17.8a10 10 0 0 1 7.9 0m-7.9 12a10 10 0 0 1 7.9 0"
  fill="none" stroke="#33cc33" stroke-miterlimit="10" stroke-width="2" stroke-linejoin="round"
  stroke-linecap="round"></path>
  <circle data-name="layer1" cx="15" cy="42" r="13" fill="none" stroke="#003399"
  stroke-miterlimit="10" stroke-width="2" stroke-linejoin="round" stroke-linecap="round"></circle>
  <path data-name="layer1" d="M22 42a7 7 0 0 1-7 7m41-7a7 7 0 0 1-7 7"
  fill="none" stroke="#003399" stroke-miterlimit="10" stroke-width="2" stroke-linejoin="round"
  stroke-linecap="round"></path>
  <circle data-name="layer1" cx="49" cy="42" r="13" fill="none" stroke="#003399"
  stroke-miterlimit="10" stroke-width="2" stroke-linejoin="round" stroke-linecap="round"></circle>
</svg>