<svg xmlns="http://www.w3.org/2000/svg" viewBox="0 0 64 64" aria-labelledby="title"
aria-describedby="desc" role="img" xmlns:xlink="http://www.w3.org/1999/xlink">
  <title>Bookmark</title>
  <desc>A line styled icon from Orion Icon Library.</desc>
  <path data-name="layer2"
  fill="none" stroke="#33cc33" stroke-miterlimit="10" stroke-width="2" d="M54 62L32 48 10 62V2h44v60z"
  stroke-linejoin="round" stroke-linecap="round"></path>
  <path data-name="layer1" fill="none" stroke="#003399" stroke-miterlimit="10"
  stroke-width="2" d="M32 34.2l-8.7 6.2 3.4-10.1-8.7-6.2h10.7L32 14l3.3 10.1H46l-8.7 6.2 3.3 10.1-8.6-6.2z"
  stroke-linejoin="round" stroke-linecap="round"></path>
</svg>