<svg xmlns="http://www.w3.org/2000/svg" viewBox="0 0 64 64" aria-labelledby="title"
aria-describedby="desc" role="img" xmlns:xlink="http://www.w3.org/1999/xlink">
  <title>Calc</title>
  <desc>A line styled icon from Orion Icon Library.</desc>
  <path data-name="layer2"
  fill="none" stroke="#33cc33" stroke-miterlimit="10" stroke-width="2" d="M18 12v12m-6-6h12m-2 24l-8 8m0-8l8 8m18-32h12M42 42h8m-8 8h8"
  stroke-linejoin="round" stroke-linecap="round"></path>
  <rect data-name="layer1" x="4" y="4" width="56" height="56" rx="8"
  ry="8" fill="none" stroke="#003399" stroke-miterlimit="10" stroke-width="2"
  stroke-linejoin="round" stroke-linecap="round"></rect>
  <path data-name="layer1" fill="none" stroke="#003399" stroke-miterlimit="10"
  stroke-width="2" d="M32 4v56M4 32h56" stroke-linejoin="round" stroke-linecap="round"></path>
</svg>