<svg xmlns="http://www.w3.org/2000/svg" viewBox="0 0 64 64" aria-labelledby="title"
aria-describedby="desc" role="img" xmlns:xlink="http://www.w3.org/1999/xlink">
  <title>Cell Phone</title>
  <desc>A line styled icon from Orion Icon Library.</desc>
  <rect data-name="layer2"
  x="16" y="10" width="34" height="52" rx="6" ry="6" fill="none" stroke="#33cc33"
  stroke-linecap="round" stroke-miterlimit="10" stroke-width="2" stroke-linejoin="round"></rect>
  <path data-name="layer1" fill="none" stroke="#003399" stroke-linecap="round"
  stroke-miterlimit="10" stroke-width="2" d="M22 18h22v16H22z" stroke-linejoin="round"></path>
  <path data-name="layer2" fill="none" stroke="#33cc33" stroke-linecap="round"
  stroke-miterlimit="10" stroke-width="2" d="M24 2v7.9" stroke-linejoin="round"></path>
  <circle data-name="layer1" cx="26" cy="41" r="1" fill="none" stroke="#003399"
  stroke-linecap="round" stroke-miterlimit="10" stroke-width="2" stroke-linejoin="round"></circle>
  <circle data-name="layer1" cx="33" cy="41" r="1" fill="none"
  stroke="#003399" stroke-linecap="round" stroke-miterlimit="10" stroke-width="2"
  stroke-linejoin="round"></circle>
  <circle data-name="layer1" cx="40" cy="41" r="1" fill="none"
  stroke="#003399" stroke-linecap="round" stroke-miterlimit="10" stroke-width="2"
  stroke-linejoin="round"></circle>
  <circle data-name="layer1" cx="26" cy="48" r="1" fill="none"
  stroke="#003399" stroke-linecap="round" stroke-miterlimit="10" stroke-width="2"
  stroke-linejoin="round"></circle>
  <circle data-name="layer1" cx="33" cy="48" r="1" fill="none"
  stroke="#003399" stroke-linecap="round" stroke-miterlimit="10" stroke-width="2"
  stroke-linejoin="round"></circle>
  <circle data-name="layer1" cx="40" cy="48" r="1" fill="none"
  stroke="#003399" stroke-linecap="round" stroke-miterlimit="10" stroke-width="2"
  stroke-linejoin="round"></circle>
  <circle data-name="layer1" cx="26" cy="55" r="1" fill="none"
  stroke="#003399" stroke-linecap="round" stroke-miterlimit="10" stroke-width="2"
  stroke-linejoin="round"></circle>
  <circle data-name="layer1" cx="33" cy="55" r="1" fill="none"
  stroke="#003399" stroke-linecap="round" stroke-miterlimit="10" stroke-width="2"
  stroke-linejoin="round"></circle>
  <circle data-name="layer1" cx="40" cy="55" r="1" fill="none"
  stroke="#003399" stroke-linecap="round" stroke-miterlimit="10" stroke-width="2"
  stroke-linejoin="round"></circle>
</svg>