<svg xmlns="http://www.w3.org/2000/svg" viewBox="0 0 64 64" aria-labelledby="title"
aria-describedby="desc" role="img" xmlns:xlink="http://www.w3.org/1999/xlink">
  <title>Chat Message</title>
  <desc>A line styled icon from Orion Icon Library.</desc>
  <path data-name="layer2"
  d="M4 60l19.8-7.9a37.1 37.1 0 0 0 8.2.9c16.6 0 30-10.7 30-24S48.6 5 32 5 2 15.7 2 29c0 6.7 3.5 12.8 9.1 17.2z"
  fill="none" stroke="#33cc33" stroke-linecap="round" stroke-linejoin="round"
  stroke-width="2"></path>
  <path data-name="layer1" fill="none" stroke="#003399" stroke-linecap="round"
  stroke-linejoin="round" stroke-width="2" d="M18 19h28M18 29h28M18 39h16"></path>
</svg>