<svg xmlns="http://www.w3.org/2000/svg" viewBox="0 0 64 64" aria-labelledby="title"
aria-describedby="desc" role="img" xmlns:xlink="http://www.w3.org/1999/xlink">
  <title>Chef</title>
  <desc>A line styled icon from Orion Icon Library.</desc>
  <path data-name="layer2"
  d="M18 24v4c-3 0-3.3 3.8-3.3 4.7s.7 5.3 3.8 5.3a17.2 17.2 0 0 0 7.2 10.3m11.9 0A17.2 17.2 0 0 0 44.8 38c3 0 3.7-4.3 3.7-5.3S49 28.1 46 28v-2.6"
  fill="none" stroke="#33cc33" stroke-miterlimit="10" stroke-width="2" stroke-linejoin="round"
  stroke-linecap="round"></path>
  <path data-name="layer2" d="M24 47.1v.9c0 2 .6 4.9-10.4 7S2 62 2 62h60s0-4.4-12.4-7C40 53 40 50 40 48v-1.6"
  fill="none" stroke="#33cc33" stroke-miterlimit="10" stroke-width="2" stroke-linejoin="round"
  stroke-linecap="round"></path>
  <path data-name="layer1" d="M24 6.9c-4-2.1-10-.7-10 4.3s4 4.2 4 7.2V24a44.3 44.3 0 0 1 14-2 28.4 28.4 0 0 1 14 3.4V18c0-1.8 4-3.5 4-7s-4.1-6.7-10-4.1"
  fill="none" stroke="#003399" stroke-miterlimit="10" stroke-width="2" stroke-linejoin="round"
  stroke-linecap="round"></path>
  <path data-name="layer2" d="M32 38.8s-.7-2.8-3.3-2.8-3.7 4-3.7 4h14s-1-4-3.6-4-3.4 2.8-3.4 2.8zm-8.4 11.8L32 54l8.3-3.8M32 54v8"
  fill="none" stroke="#33cc33" stroke-miterlimit="10" stroke-width="2" stroke-linejoin="round"
  stroke-linecap="round"></path>
  <path data-name="layer1" d="M23 10.1a9 9 0 0 1 17.9.1" fill="none"
  stroke="#003399" stroke-miterlimit="10" stroke-width="2" stroke-linejoin="round"
  stroke-linecap="round"></path>
</svg>