<svg viewBox="0 0 64 64" xmlns="http://www.w3.org/2000/svg" aria-labelledby="title"
aria-describedby="desc" role="img" xmlns:xlink="http://www.w3.org/1999/xlink">
  <title>Design</title>
  <desc>A line styled icon from Orion Icon Library.</desc>
  <path d="M33.353 22.629l-19.77-19.77-10.761 10.76L22.51 33.461"
  stroke-width="2" stroke-miterlimit="10" stroke="#003399" fill="none" data-name="layer1"
  stroke-linejoin="round" stroke-linecap="round"></path>
  <path d="M18.301 53.703l36.603-36.561-8.026-8.026-36.602 36.562-6.383 14.408 14.408-6.383zm36.603-36.561l6.274-6.267-8.026-8.025-6.274 6.266"
  stroke-width="2" stroke-miterlimit="10" stroke="#33cc33" fill="none" data-name="layer2"
  stroke-linejoin="round" stroke-linecap="round"></path>
  <path d="M30.502 41.516L49.984 61.15 60.93 50.205 41.381 30.656m2.137 23.856l5.496-5.498M15.892 26.791l6.055-6.057M37.48 48.547l4.502-4.501M9.588 20.439l4.443-4.441"
  stroke-width="2" stroke-miterlimit="10" stroke="#003399" fill="none" data-name="layer1"
  stroke-linejoin="round" stroke-linecap="round"></path>
  <path d="M10.276 45.678l8.025 8.025" stroke-width="2" stroke-miterlimit="10"
  stroke="#33cc33" fill="none" data-name="layer2" stroke-linejoin="round"
  stroke-linecap="round"></path>
</svg>