<svg viewBox="0 0 64 64" xmlns="http://www.w3.org/2000/svg" aria-labelledby="title"
aria-describedby="desc" role="img" xmlns:xlink="http://www.w3.org/1999/xlink">
  <title>Dollar Badge</title>
  <desc>A line styled icon from Orion Icon Library.</desc>
  <path stroke-width="2"
  stroke-miterlimit="10" stroke="#003399" fill="none" d="M39.889 24A8 8 0 0 0 32 17.334c-4.418 0-8 2.914-8 7.333s4 6.42 8 7.334c4 .9 8 2.917 8 7.334s-3.582 7.333-8 7.333a8 8 0 0 1-8-8"
  stroke-linejoin="round" stroke-linecap="round"></path>
  <path d="M32 17.334v-5.335m0 40.003v-5.335m0-42.196l5.967-2.472 4.568 4.567 6.459.001 2.471 5.967 5.969 2.473v6.458L62 26.032l-2.471 5.967L62 37.967l-4.566 4.568v6.458l-5.969 2.472-2.471 5.967-6.459.001-4.568 4.568L32 59.529l-5.967 2.472-4.568-4.568-6.459-.001-2.471-5.967-5.969-2.472v-6.458L2 37.967l2.471-5.968L2 26.032l4.566-4.567v-6.458l5.969-2.473 2.471-5.967 6.459-.001 4.568-4.567L32 4.471z"
  stroke-width="2" stroke-miterlimit="10" stroke="#33cc33" fill="none" data-name="layer2"
  stroke-linejoin="round" stroke-linecap="round"></path>
</svg>