<svg viewBox="0 0 64 64" xmlns="http://www.w3.org/2000/svg" aria-labelledby="title"
aria-describedby="desc" role="img" xmlns:xlink="http://www.w3.org/1999/xlink">
  <title>Drag Vertical</title>
  <desc>A line styled icon from Orion Icon Library.</desc>
  <path d="M29 35v13.6l-2.8-3.1-4.4 4L32 61l10.2-11.5-4.4-4-2.8 3.1V35m0-6V15.4l2.8 3.1 4.4-4L32 3 21.8 14.5l4.4 4 2.8-3.1V29"
  stroke-width="2" stroke-miterlimit="10" stroke-linecap="round" stroke="#33cc33"
  fill="none" data-name="layer2" stroke-linejoin="round"></path>
  <path d="M6 29h52v6H6z" stroke-width="2" stroke-miterlimit="10"
  stroke-linecap="round" stroke="#003399" fill="none" data-name="layer1"
  stroke-linejoin="round"></path>
</svg>