<svg viewBox="0 0 64 64" xmlns="http://www.w3.org/2000/svg" aria-labelledby="title"
aria-describedby="desc" role="img" xmlns:xlink="http://www.w3.org/1999/xlink">
  <title>Edit Button</title>
  <desc>A line styled icon from Orion Icon Library.</desc>
  <path stroke-width="2"
  stroke-miterlimit="10" stroke="#33cc33" fill="none" d="M44.889 26.138l1.882-1.883c1.941-1.94 1.439-4.584-.5-6.524s-4.584-2.442-6.525-.5l-1.882 1.883"
  data-name="layer2" stroke-linejoin="round" stroke-linecap="round"></path>
  <path d="M41.814 29.212l3.075-3.074-7.027-7.027-3.074 3.074M18.164 38.809l7.026 7.026"
  stroke-width="2" stroke-miterlimit="10" stroke="#33cc33" fill="none" data-name="layer2"
  stroke-linejoin="round" stroke-linecap="round"></path>
  <circle stroke-width="2" stroke-miterlimit="10" stroke="#003399"
  fill="none" r="30" cy="32" cx="32" data-name="layer1" stroke-linejoin="round"
  stroke-linecap="round"></circle>
  <path d="M25.19 45.835l16.624-16.623-7.026-7.027-16.624 16.624L16 47.999l9.19-2.164z"
  stroke-width="2" stroke-miterlimit="10" stroke="#33cc33" fill="none" data-name="layer2"
  stroke-linejoin="round" stroke-linecap="round"></path>
</svg>