<svg viewBox="0 0 64 64" xmlns="http://www.w3.org/2000/svg" aria-labelledby="title"
aria-describedby="desc" role="img" xmlns:xlink="http://www.w3.org/1999/xlink">
  <title>Edit</title>
  <desc>A line styled icon from Orion Icon Library.</desc>
  <path d="M54.894 21.697l6.276-6.263-8.026-8.026-6.276 6.264"
  stroke-width="2" stroke-miterlimit="10" stroke="#003399" fill="none" data-name="layer1"
  stroke-linejoin="round" stroke-linecap="round"></path>
  <path d="M33.037 40.592h16.955l11.438 16H2.57l11.422-16h11.69"
  stroke-width="2" stroke-miterlimit="10" stroke="#33cc33" fill="none" data-name="layer2"
  stroke-linejoin="round" stroke-linecap="round"></path>
  <path d="M23.885 44.645l6.383-14.407 16.6-16.566 8.026 8.025-16.601 16.566-14.408 6.382zm6.383-14.407l8.025 8.025"
  stroke-width="2" stroke-miterlimit="10" stroke="#003399" fill="none" data-name="layer1"
  stroke-linejoin="round" stroke-linecap="round"></path>
</svg>