<svg viewBox="0 0 64 64" xmlns="http://www.w3.org/2000/svg" aria-labelledby="title"
aria-describedby="desc" role="img" xmlns:xlink="http://www.w3.org/1999/xlink">
  <title>Exit</title>
  <desc>A line styled icon from Orion Icon Library.</desc>
  <path d="M56 43H15.3l7.7-7.3-4.2-4.7L3 46l15.8 15 4.2-4.7-7.7-7.3H62V13H6v6h50v24z"
  stroke-width="2" stroke-miterlimit="10" stroke-linecap="round" stroke="#003399"
  fill="none" data-name="layer1" stroke-linejoin="round"></path>
</svg>