<svg viewBox="0 0 64 64" xmlns="http://www.w3.org/2000/svg" aria-labelledby="title"
aria-describedby="desc" role="img" xmlns:xlink="http://www.w3.org/1999/xlink">
  <title>Flag</title>
  <desc>A line styled icon from Orion Icon Library.</desc>
  <path d="M6.375 27.001l13.75-13.751 18.75 18.749-1.25 11.251"
  stroke-width="2" stroke-miterlimit="10" stroke="#33cc33" fill="none" data-name="layer2"
  stroke-linejoin="round" stroke-linecap="round"></path>
  <path d="M25.125 18.25L41.375 2l18.75 18.75-22.5 22.5-5-5" stroke-width="2"
  stroke-miterlimit="10" stroke="#33cc33" fill="none" data-name="layer2"
  stroke-linejoin="round" stroke-linecap="round"></path>
  <path stroke-width="2" stroke-miterlimit="10" stroke="#003399"
  fill="none" d="M3.875 24.5c.3.295 37.5 37.5 37.5 37.5" data-name="layer1"
  stroke-linejoin="round" stroke-linecap="round"></path>
  <path d="M38.875 31.999l-13.75 13.75" stroke-width="2" stroke-miterlimit="10"
  stroke="#33cc33" fill="none" data-name="layer2" stroke-linejoin="round"
  stroke-linecap="round"></path>
</svg>