<svg xmlns="http://www.w3.org/2000/svg" viewBox="0 0 64 64" aria-labelledby="title"
aria-describedby="desc" role="img" xmlns:xlink="http://www.w3.org/1999/xlink">
  <title>Flame</title>
  <desc>A line styled icon from Orion Icon Library.</desc>
  <path data-name="layer1"
  d="M50 14c-6.9 6.1-6 16-6 16S33.8 14.5 38 2c-4.1 8.4-22 10.6-14 34-10.1-3.8-10-16-10-16s-6 6-6 18a24 24 0 0 0 48 0c0-12.2-8.7-12.1-6-24z"
  fill="none" stroke="#003399" stroke-miterlimit="10" stroke-width="2" stroke-linejoin="round"
  stroke-linecap="round"></path>
</svg>