<svg viewBox="0 0 64 64" xmlns="http://www.w3.org/2000/svg" aria-labelledby="title"
aria-describedby="desc" role="img" xmlns:xlink="http://www.w3.org/1999/xlink">
  <title>Fragile</title>
  <desc>A line styled icon from Orion Icon Library.</desc>
  <path d="M24.002 62h15.996"
  stroke-width="2" stroke-miterlimit="10" stroke="#003399" fill="none" data-name="layer1"
  stroke-linejoin="round" stroke-linecap="round"></path>
  <path d="M30 2l1.998 4.128L30 11.998l4 4-4 12" stroke-width="2"
  stroke-miterlimit="10" stroke="#33cc33" fill="none" data-name="layer2"
  stroke-linejoin="round" stroke-linecap="round"></path>
  <path d="M32 62V42M22 2h20s6 17.333 6 26c0 8.836-7.162 14-16 14s-16-5.164-16-14c0-5.969 6-26 6-26z"
  stroke-width="2" stroke-miterlimit="10" stroke="#003399" fill="none" data-name="layer1"
  stroke-linejoin="round" stroke-linecap="round"></path>
</svg>