<svg xmlns="http://www.w3.org/2000/svg" viewBox="0 0 64 64" aria-labelledby="title"
aria-describedby="desc" role="img" xmlns:xlink="http://www.w3.org/1999/xlink">
  <title>Image Folder</title>
  <desc>A line styled icon from Orion Icon Library.</desc>
  <path data-name="layer2"
  d="M6 7a3 3 0 0 0 3 3h41v52H9a3 3 0 0 1-3-3V5a3 3 0 0 1 3-3h49v54h-8" fill="none"
  stroke="#33cc33" stroke-miterlimit="10" stroke-width="2" stroke-linejoin="round"
  stroke-linecap="round"></path>
  <path data-name="layer1" d="M16 46c0-1.5 2.4-9 6-9s2.6 3 4 3 2-8 6-8 8 12.8 8 14"
  fill="none" stroke="#003399" stroke-miterlimit="10" stroke-width="2" stroke-linejoin="round"
  stroke-linecap="round"></path>
  <path data-name="layer1" fill="none" stroke="#003399" stroke-miterlimit="10"
  stroke-width="2" d="M14 24h28v22H14z" stroke-linejoin="round" stroke-linecap="round"></path>
</svg>