<svg xmlns="http://www.w3.org/2000/svg" viewBox="0 0 64 64" aria-labelledby="title"
aria-describedby="desc" role="img" xmlns:xlink="http://www.w3.org/1999/xlink">
  <title>Indicator Right</title>
  <desc>A line styled icon from Orion Icon Library.</desc>
  <path data-name="layer1"
  d="M38.879 47.121l13.993-13.993.012-.012L55 31 38.879 14.879a3 3 0 0 0-4.242 4.242l8.879 8.88H13.999a3 3 0 0 0 0 6h29.515l-8.877 8.878a3 3 0 0 0 4.242 4.242z"
  fill="none" stroke="#003399" stroke-miterlimit="10" stroke-width="2" stroke-linejoin="round"
  stroke-linecap="round"></path>
</svg>