<svg xmlns="http://www.w3.org/2000/svg" viewBox="0 0 64 64" aria-labelledby="title"
aria-describedby="desc" role="img" xmlns:xlink="http://www.w3.org/1999/xlink">
  <title>Layers</title>
  <desc>A line styled icon from Orion Icon Library.</desc>
  <path data-name="layer3"
  fill="none" stroke="#003399" stroke-miterlimit="10" stroke-width="2" d="M46 46v10H2V28h8"
  stroke-linejoin="round" stroke-linecap="round"></path>
  <path data-name="layer2" fill="none" stroke="#33cc33" stroke-miterlimit="10"
  stroke-width="2" d="M54 36v10H10V18h8" stroke-linejoin="round" stroke-linecap="round"></path>
  <path data-name="layer1" fill="none" stroke="#003399" stroke-miterlimit="10"
  stroke-width="2" d="M18 8h44v28H18z" stroke-linejoin="round" stroke-linecap="round"></path>
</svg>