<svg xmlns="http://www.w3.org/2000/svg" viewBox="0 0 64 64" aria-labelledby="title"
aria-describedby="desc" role="img" xmlns:xlink="http://www.w3.org/1999/xlink">
  <title>Loop</title>
  <desc>A line styled icon from Orion Icon Library.</desc>
  <path data-name="layer2"
  d="M13 48h-3V16h18.11l-3.103 2.758a3 3 0 0 0 3.986 4.485L40.516 13 28.993 2.758a3 3 0 0 0-3.986 4.485L28.109 10H7a3 3 0 0 0-3 3v38a3 3 0 0 0 3 3h6a3 3 0 0 0 0-6z"
  fill="none" stroke="#33cc33" stroke-miterlimit="10" stroke-width="2" stroke-linejoin="round"
  stroke-linecap="round"></path>
  <path data-name="layer1" d="M55 10h-6a3 3 0 0 0 0 6h3v32H33.89l3.103-2.757a3 3 0 0 0-3.986-4.485L21.484 51l11.523 10.243a3 3 0 0 0 3.986-4.485L33.891 54H55a3 3 0 0 0 3-3V13a3 3 0 0 0-3-3z"
  fill="none" stroke="#003399" stroke-miterlimit="10" stroke-width="2" stroke-linejoin="round"
  stroke-linecap="round"></path>
</svg>