<svg xmlns="http://www.w3.org/2000/svg" viewBox="0 0 64 64" aria-labelledby="title"
aria-describedby="desc" role="img" xmlns:xlink="http://www.w3.org/1999/xlink">
  <title>Mailbox</title>
  <desc>A line styled icon from Orion Icon Library.</desc>
  <path data-name="layer2"
  fill="none" stroke="#33cc33" stroke-miterlimit="10" stroke-width="2" d="M24 42v18m34-26v8H40V17a9 9 0 0 1 9-9 9 9 0 0 1 9 9v1M30 8h19m-9 34H2V17a9 9 0 0 1 9-9h9"
  stroke-linejoin="round" stroke-linecap="round"></path>
  <path data-name="layer1" fill="none" stroke="#003399" stroke-miterlimit="10"
  stroke-width="2" d="M59.1 34H48V18h13.8l-2.7 16zM20 2h10v8H20zm10 8v8"
  stroke-linejoin="round" stroke-linecap="round"></path>
</svg>