<svg xmlns="http://www.w3.org/2000/svg" viewBox="0 0 64 64" aria-labelledby="title"
aria-describedby="desc" role="img" xmlns:xlink="http://www.w3.org/1999/xlink">
  <title>Merge</title>
  <desc>A line styled icon from Orion Icon Library.</desc>
  <path data-name="layer2"
  d="M48.888 34H62v-5.991l-13.114-.002 3.108-2.765a3 3 0 1 0-3.988-4.483L36 31l12.008 10.243a3 3 0 0 0 3.984-4.486z"
  fill="none" stroke="#33cc33" stroke-miterlimit="10" stroke-width="2" stroke-linejoin="round"
  stroke-linecap="round"></path>
  <path data-name="layer1" d="M15.98 20.763a3 3 0 1 0-3.985 4.485l3.11 2.763L2 28.009V34h13.11l-3.113 2.762a3 3 0 1 0 3.98 4.488L28 31z"
  fill="none" stroke="#003399" stroke-miterlimit="10" stroke-width="2" stroke-linejoin="round"
  stroke-linecap="round"></path>
</svg>