<svg viewBox="0 0 64 64" xmlns="http://www.w3.org/2000/svg" aria-labelledby="title"
aria-describedby="desc" role="img" xmlns:xlink="http://www.w3.org/1999/xlink">
  <title>Move Drag Horizontal</title>
  <desc>A line styled icon from Orion Icon Library.</desc>
  <path d="M52 40l9-8-9-8M12 40l-9-8 9-8m49 8H3"
  stroke-width="2" stroke-miterlimit="10" stroke-linecap="round" stroke="#33cc33"
  fill="none" data-name="layer2" stroke-linejoin="round"></path>
  <path d="M32 58V6" stroke-width="2" stroke-miterlimit="10" stroke-linecap="round"
  stroke="#003399" fill="none" data-name="layer1" stroke-linejoin="round"></path>
</svg>