<svg xmlns="http://www.w3.org/2000/svg" viewBox="0 0 64 64" aria-labelledby="title"
aria-describedby="desc" role="img" xmlns:xlink="http://www.w3.org/1999/xlink">
  <title>Music</title>
  <desc>A line styled icon from Orion Icon Library.</desc>
  <path data-name="layer2"
  d="M2 54a8 8 0 0 0 16 0v-8h-8a8 8 0 0 0-8 8zm30-8a8 8 0 0 0 16 0v-8h-8a8 8 0 0 0-8 8zM18 20v26m30-34v26"
  fill="none" stroke="#33cc33" stroke-miterlimit="10" stroke-width="2" stroke-linejoin="round"
  stroke-linecap="round"></path>
  <path data-name="layer1" fill="none" stroke="#003399" stroke-miterlimit="10"
  stroke-width="2" d="M18 10v10.1l30-8V2l-30 8z" stroke-linejoin="round"
  stroke-linecap="round"></path>
</svg>