<svg xmlns="http://www.w3.org/2000/svg" viewBox="0 0 64 64" aria-labelledby="title"
aria-describedby="desc" role="img" xmlns:xlink="http://www.w3.org/1999/xlink">
  <title>Navigation Up</title>
  <desc>A line styled icon from Orion Icon Library.</desc>
  <path data-name="layer1"
  d="M43 40a2.992 2.992 0 0 1-2.121-.879l-8.89-8.635-8.868 8.635a3 3 0 0 1-4.242-4.242L31.989 22l13.132 12.879A3 3 0 0 1 43 40z"
  fill="none" stroke="#003399" stroke-miterlimit="10" stroke-width="2" stroke-linejoin="round"
  stroke-linecap="round"></path>
</svg>