<svg xmlns="http://www.w3.org/2000/svg" viewBox="0 0 64 64" aria-labelledby="title"
aria-describedby="desc" role="img" xmlns:xlink="http://www.w3.org/1999/xlink">
  <title>Online Payment</title>
  <desc>A line styled icon from Orion Icon Library.</desc>
  <path data-name="layer2"
  d="M58 43a3.9 3.9 0 0 1-4 3H25a3 3 0 0 1-3-3l4-22a3.9 3.9 0 0 1 4-3h29a3 3 0 0 1 3 3z"
  fill="none" stroke="#33cc33" stroke-miterlimit="10" stroke-width="2" stroke-linejoin="round"
  stroke-linecap="round"></path>
  <path data-name="layer1" fill="none" stroke="#003399" stroke-miterlimit="10"
  stroke-width="2" d="M2 22h16M6 30h10m-6 8h4" stroke-linejoin="round" stroke-linecap="round"></path>
</svg>