<svg xmlns="http://www.w3.org/2000/svg" viewBox="0 0 64 64" aria-labelledby="title"
aria-describedby="desc" role="img" xmlns:xlink="http://www.w3.org/1999/xlink">
  <title>Pay</title>
  <desc>A line styled icon from Orion Icon Library.</desc>
  <path data-name="layer1"
  fill="none" stroke="#003399" stroke-miterlimit="10" stroke-width="2" d="M52 37h10v22H52zm0 18.2c-2 0-14.9 5.8-22 5.8-4.2 0-7.9-2.2-16-6-3.8-1.8-12-6.6-12-10s10.9 1.1 20.1 4"
  stroke-linejoin="round" stroke-linecap="round"></path>
  <circle data-name="layer2" cx="34.1" cy="11" r="8" fill="none"
  stroke="#33cc33" stroke-miterlimit="10" stroke-width="2" stroke-linejoin="round"
  stroke-linecap="round"></circle>
  <circle data-name="layer2" cx="20" cy="29" r="8" fill="none"
  stroke="#33cc33" stroke-miterlimit="10" stroke-width="2" stroke-linejoin="round"
  stroke-linecap="round"></circle>
  <path data-name="layer1" d="M36.1 53h-10a4 4 0 0 1-4-4 4 4 0 0 1 4-4h4c12 0 8-6 22-6"
  fill="none" stroke="#003399" stroke-miterlimit="10" stroke-width="2" stroke-linejoin="round"
  stroke-linecap="round"></path>
</svg>