<svg xmlns="http://www.w3.org/2000/svg" viewBox="0 0 64 64" aria-labelledby="title"
aria-describedby="desc" role="img" xmlns:xlink="http://www.w3.org/1999/xlink">
  <title>Portfolio Grid</title>
  <desc>A line styled icon from Orion Icon Library.</desc>
  <path data-name="layer2"
  fill="none" stroke="#33cc33" stroke-miterlimit="10" stroke-width="2" d="M2 2h12v12H2zm24 0h12v12H26zm24 0h12v12H50zM2 50h12v12H2z"
  stroke-linejoin="round" stroke-linecap="round"></path>
  <path data-name="layer1" fill="none" stroke="#003399" stroke-miterlimit="10"
  stroke-width="2" d="M26 50h12v12H26zm24 0h12v12H50z" stroke-linejoin="round"
  stroke-linecap="round"></path>
  <path data-name="layer2" fill="none" stroke="#33cc33" stroke-miterlimit="10"
  stroke-width="2" d="M2 25.988h12v12H2z" stroke-linejoin="round" stroke-linecap="round"></path>
  <path data-name="layer1" fill="none" stroke="#003399" stroke-miterlimit="10"
  stroke-width="2" d="M26 25.988h12v12H26zm24 0h12v12H50z" stroke-linejoin="round"
  stroke-linecap="round"></path>
</svg>