<svg xmlns="http://www.w3.org/2000/svg" viewBox="0 0 64 64" aria-labelledby="title"
aria-describedby="desc" role="img" xmlns:xlink="http://www.w3.org/1999/xlink">
  <title>Rdio</title>
  <desc>A color styled icon from Orion Icon Library.</desc>
  <path data-name="layer1"
  d="M53.335 28.413c8.205-2.391 13.009-11.059 9.506-11.258-8.806-.4-16.411-4.683-21.514-7.871a9.512 9.512 0 0 0-1.7-1v19.83a15.619 15.619 0 0 1-8.506 13.948c-6.6 3.188-13.909 1.2-16.311-4.384-2.5-5.579.9-12.653 7.4-15.841a13.765 13.765 0 0 1 10.607-.8V5.7a25.2 25.2 0 0 0-6.2-.7 27 27 0 1 0 27.018 27 21.689 21.689 0 0 0-.3-3.587z"
  fill="#2d7bc8"></path>
</svg>