<svg xmlns="http://www.w3.org/2000/svg" viewBox="0 0 64 64" aria-labelledby="title"
aria-describedby="desc" role="img" xmlns:xlink="http://www.w3.org/1999/xlink">
  <title>Ribbon</title>
  <desc>A line styled icon from Orion Icon Library.</desc>
  <path data-name="layer2"
  fill="none" stroke="#33cc33" stroke-miterlimit="10" stroke-width="2" d="M34 30.5L26 53l-10-4 7.3-19.5m8.9 6.4L38 53l10-4-8-20"
  stroke-linejoin="round" stroke-linecap="round"></path>
  <path data-name="layer1" d="M25.4 18.3S17.7 11 4 11C-.5 23.2 4 35 4 35s14.9-2.5 22-7m12.6-9.7S46.3 11 60 11c4.5 12.2 0 24 0 24s-14.9-2.5-22-7"
  fill="none" stroke="#003399" stroke-miterlimit="10" stroke-width="2" stroke-linejoin="round"
  stroke-linecap="round"></path>
  <circle data-name="layer1" cx="32" cy="22.8" r="8" fill="none"
  stroke="#003399" stroke-miterlimit="10" stroke-width="2" stroke-linejoin="round"
  stroke-linecap="round"></circle>
</svg>