<svg xmlns="http://www.w3.org/2000/svg" viewBox="0 0 64 64" aria-labelledby="title"
aria-describedby="desc" role="img" xmlns:xlink="http://www.w3.org/1999/xlink">
  <title>Scissor</title>
  <desc>A line styled icon from Orion Icon Library.</desc>
  <circle data-name="layer2"
  cx="34" cy="14" r="8" transform="rotate(-45 33.97 13.93)" fill="none" stroke="#33cc33"
  stroke-miterlimit="10" stroke-width="2" stroke-linejoin="round" stroke-linecap="round"></circle>
  <path data-name="layer2" fill="none" stroke="#33cc33" stroke-miterlimit="10"
  stroke-width="2" d="M22.5 58l6.8-24.7m10.5-13.6L29.6 58" stroke-linejoin="round"
  stroke-linecap="round"></path>
  <circle data-name="layer2" cx="54" cy="34" r="8" transform="rotate(-45 53.962 33.948)"
  fill="none" stroke="#33cc33" stroke-miterlimit="10" stroke-width="2" stroke-linejoin="round"
  stroke-linecap="round"></circle>
  <circle data-name="layer2" cx="54" cy="34" r="4" transform="rotate(-45 53.962 33.948)"
  fill="none" stroke="#33cc33" stroke-miterlimit="10" stroke-width="2" stroke-linejoin="round"
  stroke-linecap="round"></circle>
  <circle data-name="layer2" cx="34" cy="14" r="4" transform="rotate(-45 33.97 13.93)"
  fill="none" stroke="#33cc33" stroke-miterlimit="10" stroke-width="2" stroke-linejoin="round"
  stroke-linecap="round"></circle>
  <path data-name="layer2" d="M48.3 28.2L5.9 39.5s-4.3.9-3.9 8.1l3.9-1 21.2-5.7"
  fill="none" stroke="#33cc33" stroke-miterlimit="10" stroke-width="2" stroke-linejoin="round"
  stroke-linecap="round"></path>
  <path data-name="layer1" fill="none" stroke="#003399" stroke-miterlimit="10"
  stroke-width="2" d="M0 58h8m4 0h28m4 0h8m4 0h8" stroke-linejoin="round"
  stroke-linecap="round"></path>
</svg>