<svg xmlns="http://www.w3.org/2000/svg" viewBox="0 0 64 64" aria-labelledby="title"
aria-describedby="desc" role="img" xmlns:xlink="http://www.w3.org/1999/xlink">
  <title>Search Cart</title>
  <desc>A line styled icon from Orion Icon Library.</desc>
  <path data-name="layer2"
  fill="none" stroke="#33cc33" stroke-miterlimit="10" stroke-width="2" d="M54.4 40.6L58 22M6.1 22L12 52h26M26 2L8.1 22M38 2l18 20M2 22h60"
  stroke-linejoin="round" stroke-linecap="round"></path>
  <circle data-name="layer1" cx="46" cy="46" r="10" fill="none" stroke="#003399"
  stroke-miterlimit="10" stroke-width="2" stroke-linejoin="round" stroke-linecap="round"></circle>
  <path data-name="layer1" fill="none" stroke="#003399" stroke-miterlimit="10"
  stroke-width="2" d="M53.1 53.1L62 62" stroke-linejoin="round" stroke-linecap="round"></path>
</svg>