<svg viewBox="0 0 64 64" xmlns="http://www.w3.org/2000/svg" aria-labelledby="title"
aria-describedby="desc" role="img" xmlns:xlink="http://www.w3.org/1999/xlink">
  <title>Shopping Bag</title>
  <desc>A line styled icon from Orion Icon Library.</desc>
  <path stroke-width="2"
  stroke-miterlimit="10" stroke="#33cc33" fill="none" d="M16 14V8a6 6 0 0 1 6-6h6a6 6 0 0 1 6 6v6m4-12h2a6 6 0 0 1 6 6v6"
  data-name="layer2" stroke-linejoin="round" stroke-linecap="round"></path>
  <path d="M1.995 14h60.01v48H1.995zm44.01 48V14" stroke-width="2"
  stroke-miterlimit="10" stroke="#003399" fill="none" data-name="layer1"
  stroke-linejoin="round" stroke-linecap="round"></path>
  <path d="M54.005 14v40l8 8" stroke-width="2" stroke-miterlimit="10"
  stroke="#003399" fill="none" data-name="layer1" stroke-linejoin="round"
  stroke-linecap="round"></path>
</svg>