<svg viewBox="0 0 64 64" xmlns="http://www.w3.org/2000/svg" aria-labelledby="title"
aria-describedby="desc" role="img" xmlns:xlink="http://www.w3.org/1999/xlink">
  <title>Shuffle</title>
  <desc>A line styled icon from Orion Icon Library.</desc>
  <path d="M26 38l10.5 13h13.3l-2.9 2.9L51 58l10-10-10-10-4.1 4.1 2.9 2.9H39.5L30 33m-4-5L15.5 15H2v6h10.5L22 33"
  stroke-width="2" stroke-miterlimit="10" stroke-linecap="round" stroke="#33cc33"
  fill="none" data-name="layer2" stroke-linejoin="round"></path>
  <path d="M49.8 21l-2.9 2.9 4.2 4.2L61 18 51 8l-4.1 4.1 2.9 2.9H36.6l-24 30H2v6h13.4l24-30h10.4z"
  stroke-width="2" stroke-miterlimit="10" stroke-linecap="round" stroke="#003399"
  fill="none" data-name="layer1" stroke-linejoin="round"></path>
</svg>