<svg xmlns="http://www.w3.org/2000/svg" viewBox="0 0 64 64" aria-labelledby="title"
aria-describedby="desc" role="img" xmlns:xlink="http://www.w3.org/1999/xlink">
  <title>Song</title>
  <desc>A line styled icon from Orion Icon Library.</desc>
  <path data-name="layer2"
  fill="none" stroke="#33cc33" stroke-miterlimit="10" stroke-width="2" d="M6 10V2h52v8"
  stroke-linejoin="round" stroke-linecap="round"></path>
  <path data-name="layer1" d="M26 42h-4a4 4 0 1 0 4 4V24l16-4v22a4 4 0 1 1-4-4h4"
  fill="none" stroke="#003399" stroke-miterlimit="10" stroke-width="2" stroke-linejoin="round"
  stroke-linecap="round"></path>
  <path data-name="layer1" fill="none" stroke="#003399" stroke-miterlimit="10"
  stroke-width="2" d="M2 10h60v52H2z" stroke-linejoin="round" stroke-linecap="round"></path>
</svg>