<svg xmlns="http://www.w3.org/2000/svg" viewBox="0 0 64 64" aria-labelledby="title"
aria-describedby="desc" role="img" xmlns:xlink="http://www.w3.org/1999/xlink">
  <title>Synchronize</title>
  <desc>A line styled icon from Orion Icon Library.</desc>
  <path data-name="layer2"
  d="M54.741 28.14a23.002 23.002 0 0 1-39.088 19.124M9.065 33.62A23.008 23.008 0 0 1 31.917 8a22.933 22.933 0 0 1 16.262 6.732"
  fill="none" stroke="#33cc33" stroke-miterlimit="10" stroke-width="2" stroke-linejoin="round"
  stroke-linecap="round"></path>
  <path data-name="layer2" fill="none" stroke="#33cc33" stroke-miterlimit="10"
  stroke-width="2" d="M2 24l7.065 9.619L18 26m44 12l-7.259-9.86L46 36" stroke-linejoin="round"
  stroke-linecap="round"></path>
  <circle data-name="layer1" cx="32" cy="30.994" r="6" fill="none"
  stroke="#003399" stroke-miterlimit="10" stroke-width="2" stroke-linejoin="round"
  stroke-linecap="round"></circle>
</svg>