<svg xmlns="http://www.w3.org/2000/svg" viewBox="0 0 64 64" aria-labelledby="title"
aria-describedby="desc" role="img" xmlns:xlink="http://www.w3.org/1999/xlink">
  <title>Truck</title>
  <desc>A line styled icon from Orion Icon Library.</desc>
  <circle data-name="layer1"
  cx="14" cy="50" r="6" fill="none" stroke="#003399" stroke-miterlimit="10"
  stroke-width="2" stroke-linejoin="round" stroke-linecap="round"></circle>
  <circle data-name="layer1" cx="50" cy="50" r="6" fill="none"
  stroke="#003399" stroke-miterlimit="10" stroke-width="2" stroke-linejoin="round"
  stroke-linecap="round"></circle>
  <path data-name="layer1" fill="none" stroke="#003399" stroke-miterlimit="10"
  stroke-width="2" d="M44 48H20m42-6v8h-6" stroke-linejoin="round" stroke-linecap="round"></path>
  <path data-name="layer2" d="M42 8H2v42h4c0-8 8-8 8-8h28V8z" fill="none"
  stroke="#33cc33" stroke-miterlimit="10" stroke-width="2" stroke-linejoin="round"
  stroke-linecap="round"></path>
  <path data-name="layer1" d="M52 18H42v24h20V28a10 10 0 0 0-10-10z"
  fill="none" stroke="#003399" stroke-miterlimit="10" stroke-width="2" stroke-linejoin="round"
  stroke-linecap="round"></path>
</svg>