<svg xmlns="http://www.w3.org/2000/svg" viewBox="0 0 64 64" aria-labelledby="title"
aria-describedby="desc" role="img" xmlns:xlink="http://www.w3.org/1999/xlink">
  <title>Undo</title>
  <desc>A line styled icon from Orion Icon Library.</desc>
  <path data-name="layer1"
  d="M59 14H9a3 3 0 0 0 0 6h47v24H13.654l7.373-6.794a3 3 0 0 0-4.066-4.412l-13.023 12a3 3 0 0 0 0 4.412l13.023 12a3 3 0 1 0 4.066-4.412L13.654 50H59a3 3 0 0 0 3-3V17a3 3 0 0 0-3-3z"
  fill="none" stroke="#003399" stroke-miterlimit="10" stroke-width="2" stroke-linejoin="round"
  stroke-linecap="round"></path>
</svg>