<svg viewBox="0 0 64 64" xmlns="http://www.w3.org/2000/svg" aria-labelledby="title"
aria-describedby="desc" role="img" xmlns:xlink="http://www.w3.org/1999/xlink">
  <title>Undo</title>
  <desc>A line styled icon from Orion Icon Library.</desc>
  <path stroke-width="2"
  stroke-miterlimit="10" stroke-linecap="round" stroke="#003399" fill="none"
  d="M44 12H7v6h37a12 12 0 0 1 12 12c0 6.6-5.4 11-12 11H15.6l7.4-6.8-4.1-4.4L3 44l16 14 4-4.2-7.4-6.8H44c9.9 0 18-7.1 18-17a18 18 0 0 0-18-18z"
  data-name="layer1" stroke-linejoin="round"></path>
</svg>