<svg viewBox="0 0 64 64" xmlns="http://www.w3.org/2000/svg" aria-labelledby="title"
aria-describedby="desc" role="img" xmlns:xlink="http://www.w3.org/1999/xlink">
  <title>Upload</title>
  <desc>A line styled icon from Orion Icon Library.</desc>
  <path d="M29 14.9V47h6V14.6l9.8 10.5 4.4-4.2L32 3 14.8 22l4.4 4L29 14.9z"
  stroke-width="2" stroke-miterlimit="10" stroke-linecap="round" stroke="#33cc33"
  fill="none" data-name="layer2" stroke-linejoin="round"></path>
  <path d="M52 45v11H12V45H6v17h52V45h-6z" stroke-width="2" stroke-miterlimit="10"
  stroke-linecap="round" stroke="#003399" fill="none" data-name="layer1"
  stroke-linejoin="round"></path>
</svg>