<svg xmlns="http://www.w3.org/2000/svg" viewBox="0 0 64 64" aria-labelledby="title"
aria-describedby="desc" role="img" xmlns:xlink="http://www.w3.org/1999/xlink">
  <title>Windows</title>
  <desc>A color styled icon from Orion Icon Library.</desc>
  <path data-name="layer1"
  fill="#00adef" d="M0 29.9V9.1l25.6-3.5v24.3H0zM29.9 5L64 0v29.9H29.9V5zM64 34.1V64l-34.1-4.8V34.1H64zM25.6 58.7L0 55.1v-21h25.6v24.6z"></path>
</svg>